# Created by Octave 3.2.4, Wed Dec 07 14:54:47 2011 CET <mnagel@comas-XPS1>
# name: molF
# type: cell
# rows: 1
# columns: 11
# name: <cell-element>
# type: matrix
# rows: 2
# columns: 3
 8.444660000000001 13.5798 107.821
 8.82128 12.7163 107.064


# name: <cell-element>
# type: matrix
# rows: 2
# columns: 3
 11.0666 13.3916 107.787
 10.3626 12.5928 107.008


# name: <cell-element>
# type: matrix
# rows: 2
# columns: 3
 8.3728 11.5652 107.452
 8.82128 12.7163 107.064


# name: <cell-element>
# type: matrix
# rows: 2
# columns: 3
 6.00925 12.0598 106.103
 6.88966 12.3629 105.116


# name: <cell-element>
# type: matrix
# rows: 2
# columns: 3
 10.8747 11.8132 106.003
 10.3626 12.5928 107.008


# name: <cell-element>
# type: matrix
# rows: 2
# columns: 3
 8.91549 13.8806 104.886
 8.18979 12.9637 105.604


# name: <cell-element>
# type: matrix
# rows: 2
# columns: 3
 3.26223 10.7599 104.273
 4.43764 10.4988 103.739


# name: <cell-element>
# type: matrix
# rows: 2
# columns: 3
 5.31001 9.526009999999999 104.062
 4.43764 10.4988 103.739


# name: <cell-element>
# type: matrix
# rows: 2
# columns: 3
 4.19299 12.7027 103.973
 4.95694 11.8737 103.391


# name: <cell-element>
# type: matrix
# rows: 2
# columns: 3
 7.33507 12.1106 102.729
 6.3783 12.1483 103.763


# name: <cell-element>
# type: matrix
# rows: 2
# columns: 3
 4.83888 12.0516 102.142
 4.95694 11.8737 103.391


