# Created by Octave 3.2.4, Wed Jul 18 10:10:41 2012 CEST <mnagel@comas-XPS7>
# name: B
# type: matrix
# rows: 11
# columns: 3
 0.03 0.323904 0.08201308123301632
 0.06 0.3430051 0.1025109892975708
 0.1 0.306404 0.07409769035236899
 0.175 0.301864 0.06907347508269726
 0.3 0.306364 0.1047722634203453
 0.6 0.307884 0.0696280363710545
 1 0.328874 0.05629832130909608
 1.75 0.3809649999999999 0.09757123338019938
 3 0.3879242 0.09052588648042431
 6 0.4189848 0.1031826626229211
 10 0.4565155000000001 0.08077235268367237
