0 120
0 120
0 120
0 120
0 120
0 120
0 120
0 120
0 120
0 120
0 120
0 120
0 120
0 120
0 120
0 120
0 120
0 120
0 120
0 120
0 120
0 120
0 120
0 120
0 120
0 120
0 120
0 120
0 120
0 120
0 120
0 120
0 120
0 120
0 120
0 120
0 120
0 120
0 120
0 120
0 120
0 120
0 120
0 120
0 120
0 120
0 120
0 120
0 120
0 120
0 120
0 120
0 120
0 120
0 120
0 120
0 120
0 120
0 120
0 120
0 120
0 120
0 120
0 120
0 120
0 120
0 120
0 120
0 120
0 120
0 120
0 120
0 120
0 120
0 120
0 120
0 120
0 120
0 120
0 120
0 120
0 120
0 120
0 120
0 120
0 120
0 120
0 120
0 120
0 120
0 120
0 120
0 120
0 120
0 120
0 120
0 120
0 120
0 120
0 120
0 120
0 120
0 120
0 120
0 120
0 120
0 120
0 120
0 120
0 120
0 120
0 120
0 120
0 120
0 120
0 120
0 120
0 120
0 120
0 120
0 120
0 120
0 120
0 120
0 120
0 120
0 120
0 120
0 120
0 120
0 120
0 120
0 120
0 120
0 120
0 120
0 120
0 120
0 120
0 120
0 120
0 120
0 120
0 120
0 120
0 120
0 120
0 120
0 120
0 120
0 120
0 120
0 120
0 120
0 120
0 120
0 120
0 120
0 120
0 120
0 120
0 120
0 120
0 120
0 120
0 120
0 120
0 120
0 120
0 120
0 120
0 120
0 120
0 120
0 120
0 120
0 120
0 120
0 120
0 120
0 120
0 120
0 120
0 120
0 120
0 120
0 120
0 120
0 120
0 120
0 120
0 120
0 120
0 120
0 120
0 120
0 120
0 120
0 120
0 120
0 120
0.288901 119.711
0.977809 119.022
1.61692 118.383
2.22231 117.778
2.81147 117.189
3.3359 116.664
3.81635 116.184
4.27343 115.727
4.71274 115.287
5.1364 114.864
5.54622 114.454
5.94361 114.056
6.32967 113.67
6.70525 113.295
7.07108 112.929
7.42776 112.572
7.77585 112.224
8.11584 111.884
8.44813 111.552
8.77314 111.227
9.0912 110.909
9.40264 110.597
9.70775 110.292
10.0068 109.993
10.3 109.7
10.5877 109.412
10.8699 109.13
11.147 108.853
11.4191 108.581
11.6863 108.314
11.9489 108.051
12.2069 107.793
12.4607 107.539
12.7102 107.29
12.9556 107.044
13.1971 106.803
13.4347 106.565
13.6687 106.331
13.8989 106.101
14.1257 105.874
14.349 105.651
14.5691 105.431
14.7858 105.214
14.9995 105.001
15.21 104.79
15.4176 104.582
15.6223 104.378
15.8242 104.176
16.0233 103.977
16.2197 103.78
16.4134 103.587
16.6046 103.395
16.7933 103.207
16.9795 103.021
17.1633 102.837
17.3447 102.655
17.5239 102.476
17.7009 102.299
17.8756 102.124
18.0482 101.952
18.2187 101.781
18.3872 101.613
18.5536 101.446
18.7181 101.282
18.8807 101.119
19.0414 100.959
19.2002 100.8
19.3572 100.643
19.5124 100.488
19.6659 100.334
19.8176 100.182
19.9677 100.032
20.1162 99.8838
20.2631 99.7369
20.4083 99.5917
20.552 99.448
20.6942 99.3058
20.8349 99.1651
20.9741 99.0259
21.1119 98.8881
21.2482 98.7518
21.3832 98.6168
21.5168 98.4832
21.649 98.351
21.7799 98.2201
21.9095 98.0905
22.0379 97.9621
22.1649 97.8351
22.2908 97.7092
22.4154 97.5846
22.5388 97.4612
22.6611 97.3389
22.7822 97.2178
22.9022 97.0978
23.021 96.979
23.1388 96.8612
23.2555 96.7445
23.371 96.629
23.4856 96.5144
23.5991 96.4009
23.7115 96.2885
23.823 96.177
23.9335 96.0665
24.043 95.957
24.1516 95.8484
24.2592 95.7408
24.3658 95.6342
24.4716 95.5284
24.5765 95.4235
24.6804 95.3196
24.7835 95.2165
24.8858 95.1142
24.9871 95.0129
25.0877 94.9123
25.1874 94.8126
25.2863 94.7137
25.3844 94.6156
25.4816 94.5184
25.5781 94.4219
25.6738 94.3262
25.7688 94.2312
25.863 94.137
25.9564 94.0436
26.0491 93.9509
26.1411 93.8589
26.2324 93.7676
26.3229 93.6771
26.4128 93.5872
26.502 93.498
26.5905 93.4095
26.6784 93.3216
26.7655 93.2345
26.8521 93.1479
26.9379 93.0621
27.0232 92.9768
27.1078 92.8922
27.1918 92.8082
27.2751 92.7249
27.3579 92.6421
27.4401 92.5599
27.5216 92.4784
27.6026 92.3974
27.6831 92.3169
27.7629 92.2371
27.8422 92.1578
27.9209 92.0791
27.9991 92.0009
28.0768 91.9232
28.1538 91.8462
28.2304 91.7696
28.3064 91.6936
28.382 91.618
28.457 91.543
28.5315 91.4685
28.6055 91.3945
28.679 91.321
28.752 91.248
28.8245 91.1755
28.8965 91.1035
28.9681 91.0319
29.0392 90.9608
29.1098 90.8902
29.18 90.82
29.2497 90.7503
29.319 90.681
29.3878 90.6122
29.4562 90.5438
29.5241 90.4759
29.5917 90.4083
29.6588 90.3412
29.7254 90.2746
29.7917 90.2083
29.8575 90.1425
29.923 90.077
29.988 90.012
30.0526 89.9474
30.1169 89.8831
30.1807 89.8193
30.2442 89.7558
30.3072 89.6928
30.3699 89.6301
30.4322 89.5678
30.4942 89.5058
30.5558 89.4442
30.617 89.383
30.6778 89.3222
30.7383 89.2617
30.7984 89.2016
30.8582 89.1418
30.9176 89.0824
30.9767 89.0233
31.0355 88.9645
31.0939 88.9061
31.1519 88.8481
31.2097 88.7903
31.2671 88.7329
31.3242 88.6758
31.381 88.619
31.4374 88.5626
31.4935 88.5065
31.5494 88.4506
31.6049 88.3951
31.6601 88.3399
31.715 88.285
31.7696 88.2304
31.8239 88.1761
31.8779 88.1221
31.9316 88.0684
31.985 88.015
32.0382 87.9618
32.091 87.909
32.1435 87.8565
32.1958 87.8042
32.2478 87.7522
32.2995 87.7005
32.351 87.649
32.4022 87.5978
32.4531 87.5469
32.5037 87.4963
32.5541 87.4459
32.6042 87.3958
32.6541 87.3459
32.7037 87.2963
32.753 87.247
32.8021 87.1979
32.8509 87.1491
32.8995 87.1005
32.9479 87.0521
32.9959 87.0041
33.0438 86.9562
33.0914 86.9086
33.1388 86.8612
33.186 86.814
33.2329 86.7671
33.2796 86.7204
33.326 86.674
33.3722 86.6278
33.4182 86.5818
33.464 86.536
33.5095 86.4905
33.5549 86.4451
33.6 86.4
33.6449 86.3551
33.6895 86.3105
33.734 86.266
33.7782 86.2218
33.8222 86.1778
33.8661 86.1339
33.9097 86.0903
33.9531 86.0469
33.9962 86.0038
34.0392 85.9608
34.082 85.918
34.1246 85.8754
34.1671 85.8329
34.2093 85.7907
34.2513 85.7487
34.2931 85.7069
34.3347 85.6653
34.3761 85.6239
34.4174 85.5826
34.4585 85.5415
34.4993 85.5007
34.54 85.46
34.5805 85.4195
34.6208 85.3792
34.661 85.339
34.7009 85.2991
34.7407 85.2593
34.7803 85.2197
34.8197 85.1803
34.859 85.141
34.8981 85.1019
34.937 85.063
34.9757 85.0243
35.0143 84.9857
35.0527 84.9473
35.0909 84.9091
35.129 84.871
35.1669 84.8331
35.2046 84.7954
35.2422 84.7578
35.2796 84.7204
35.3169 84.6831
35.354 84.646
35.3909 84.6091
35.4277 84.5723
35.4643 84.5357
35.5008 84.4992
35.5372 84.4628
35.5733 84.4267
35.6093 84.3907
35.6452 84.3548
35.6809 84.3191
35.7165 84.2835
35.7519 84.2481
35.7872 84.2128
35.8223 84.1777
35.8573 84.1427
35.8922 84.1078
35.9269 84.0731
35.9615 84.0385
35.9959 84.0041
36.0302 83.9698
36.0643 83.9357
36.0983 83.9017
36.1322 83.8678
36.1659 83.8341
36.1995 83.8005
36.233 83.767
36.2663 83.7337
36.2995 83.7005
36.3326 83.6674
36.3655 83.6345
36.3984 83.6016
36.431 83.569
36.4636 83.5364
36.496 83.504
36.5283 83.4717
36.5605 83.4395
36.5925 83.4075
36.6244 83.3756
36.6563 83.3437
36.6879 83.3121
36.7195 83.2805
36.7509 83.2491
36.7823 83.2177
36.8135 83.1865
36.8445 83.1555
36.8755 83.1245
36.9063 83.0937
36.9371 83.0629
36.9677 83.0323
36.9982 83.0018
37.0286 82.9714
37.0589 82.9411
37.089 82.911
37.1191 82.8809
37.149 82.851
37.1789 82.8211
37.2086 82.7914
37.2382 82.7618
37.2677 82.7323
37.2971 82.7029
37.3264 82.6736
37.3556 82.6444
37.3846 82.6154
37.4136 82.5864
37.4425 82.5575
37.4712 82.5288
37.4999 82.5001
37.5285 82.4715
37.5569 82.4431
37.5853 82.4147
37.6135 82.3865
37.6417 82.3583
37.6697 82.3303
37.6977 82.3023
37.7255 82.2745
37.7533 82.2467
37.781 82.219
37.8085 82.1915
37.836 82.164
37.8633 82.1367
37.8906 82.1094
37.9178 82.0822
37.9449 82.0551
37.9718 82.0282
37.9987 82.0013
38.0255 81.9745
38.0522 81.9478
38.0789 81.9211
38.1054 81.8946
38.1318 81.8682
38.1582 81.8418
38.1845 81.8155
38.2106 81.7894
38.2367 81.7633
38.2627 81.7373
38.2886 81.7114
38.3144 81.6856
38.3401 81.6599
38.3658 81.6342
38.3913 81.6087
38.4168 81.5832
38.4421 81.5579
38.4674 81.5326
38.4927 81.5073
38.5178 81.4822
38.5428 81.4572
38.5678 81.4322
38.5927 81.4073
38.6175 81.3825
38.6422 81.3578
38.6669 81.3331
38.6914 81.3086
38.7159 81.2841
38.7403 81.2597
38.7647 81.2353
38.789 81.211
38.8131 81.1869
38.8372 81.1628
38.8613 81.1387
38.8852 81.1148
38.909 81.091
38.9328 81.0672
38.9565 81.0435
38.9802 81.0198
39.0038 80.9962
39.0273 80.9727
39.0507 80.9493
39.074 80.926
39.0973 80.9027
39.1204 80.8796
39.1436 80.8564
39.1666 80.8334
39.1896 80.8104
39.2125 80.7875
39.2353 80.7647
39.2581 80.7419
39.2808 80.7192
39.3034 80.6966
39.326 80.674
39.3485 80.6515
39.3709 80.6291
39.3932 80.6068
39.4155 80.5845
39.4377 80.5623
39.4599 80.5401
39.4819 80.5181
39.5039 80.4961
39.5259 80.4741
39.5478 80.4522
39.5696 80.4304
39.5914 80.4086
39.613 80.387
39.6347 80.3653
39.6562 80.3438
39.6777 80.3223
39.6991 80.3009
39.7205 80.2795
39.7418 80.2582
39.763 80.237
39.7842 80.2158
39.8053 80.1947
39.8263 80.1737
39.8473 80.1527
39.8683 80.1317
39.8891 80.1109
39.9099 80.0901
39.9307 80.0693
39.9513 80.0487
39.972 80.028
39.9925 80.0075
40.013 79.987
40.0335 79.9665
40.0538 79.9462
40.0742 79.9258
40.0944 79.9056
40.1146 79.8854
40.1348 79.8652
40.1549 79.8451
40.1749 79.8251
40.1948 79.8052
40.2147 79.7853
40.2346 79.7654
40.2544 79.7456
40.2742 79.7258
40.2939 79.7061
40.3135 79.6865
40.3331 79.6669
40.3527 79.6473
40.3721 79.6279
40.3915 79.6085
40.4109 79.5891
40.4302 79.5698
40.4495 79.5505
40.4687 79.5313
40.4879 79.5121
40.507 79.493
40.5261 79.4739
40.5451 79.4549
40.564 79.436
40.5829 79.4171
40.6018 79.3982
40.6205 79.3795
40.6393 79.3607
40.658 79.342
40.6766 79.3234
40.6952 79.3048
40.7137 79.2863
40.7322 79.2678
40.7506 79.2494
40.769 79.231
40.7873 79.2127
40.8056 79.1944
40.8238 79.1762
40.842 79.158
40.8602 79.1398
40.8782 79.1218
40.8963 79.1037
40.9143 79.0857
40.9322 79.0678
40.9501 79.0499
40.968 79.032
40.9858 79.0142
41.0036 78.9964
41.0213 78.9787
41.0389 78.9611
41.0565 78.9435
41.0741 78.9259
41.0916 78.9084
41.1091 78.8909
41.1265 78.8735
41.1439 78.8561
41.1613 78.8387
41.1786 78.8214
41.1958 78.8042
41.2131 78.7869
41.2302 78.7698
41.2473 78.7527
41.2644 78.7356
41.2814 78.7186
41.2984 78.7016
41.3154 78.6846
41.3323 78.6677
41.3491 78.6509
41.366 78.634
41.3828 78.6172
41.3995 78.6005
41.4162 78.5838
41.4328 78.5672
41.4494 78.5506
41.466 78.534
41.4825 78.5175
41.499 78.501
41.5154 78.4846
41.5318 78.4682
41.5482 78.4518
41.5645 78.4355
41.5808 78.4192
41.597 78.403
41.6132 78.3868
41.6294 78.3706
41.6455 78.3545
41.6616 78.3384
41.6776 78.3224
41.6936 78.3064
41.7096 78.2904
41.7255 78.2745
41.7414 78.2586
41.7572 78.2428
41.773 78.227
41.7888 78.2112
41.8045 78.1955
41.8202 78.1798
41.8359 78.1641
41.8515 78.1485
41.867 78.133
41.8826 78.1174
41.8981 78.1019
41.9135 78.0865
41.9289 78.0711
41.9443 78.0557
41.9597 78.0403
41.975 78.025
41.9903 78.0097
42.0055 77.9945
42.0207 77.9793
42.0359 77.9641
42.051 77.949
42.0661 77.9339
42.0812 77.9188
42.0962 77.9038
42.1112 77.8888
42.1262 77.8738
42.1411 77.8589
42.156 77.844
42.1708 77.8292
42.1857 77.8143
42.2004 77.7996
42.2152 77.7848
42.2299 77.7701
42.2446 77.7554
42.2592 77.7408
42.2739 77.7261
42.2884 77.7116
42.303 77.697
42.3175 77.6825
42.332 77.668
42.3464 77.6536
42.3608 77.6392
42.3752 77.6248
42.3895 77.6105
42.4038 77.5962
42.4181 77.5819
42.4323 77.5677
42.4465 77.5535
42.4607 77.5393
42.4748 77.5252
42.4889 77.5111
42.503 77.497
42.5171 77.4829
42.5311 77.4689
42.5451 77.4549
42.559 77.441
42.5729 77.4271
42.5868 77.4132
42.6006 77.3994
42.6145 77.3855
42.6282 77.3718
42.642 77.358
42.6557 77.3443
42.6694 77.3306
42.6831 77.3169
42.6968 77.3032
42.7104 77.2896
42.7239 77.2761
42.7375 77.2625
42.751 77.249
42.7645 77.2355
42.778 77.222
42.7914 77.2086
42.8048 77.1952
42.8181 77.1819
42.8314 77.1686
42.8447 77.1553
42.858 77.142
42.8713 77.1287
42.8845 77.1155
42.8977 77.1023
42.9109 77.0891
42.924 77.076
42.9371 77.0629
42.9502 77.0498
42.9633 77.0367
42.9763 77.0237
42.9893 77.0107
43.0023 76.9977
43.0152 76.9848
43.0282 76.9718
43.0411 76.9589
43.0539 76.9461
43.0668 76.9332
43.0796 76.9204
43.0924 76.9076
43.1051 76.8949
43.1179 76.8821
43.1306 76.8694
43.1432 76.8568
43.1559 76.8441
43.1685 76.8315
43.1811 76.8189
43.1937 76.8063
43.2062 76.7938
43.2187 76.7813
43.2312 76.7688
43.2437 76.7563
43.2561 76.7439
43.2685 76.7315
43.2809 76.7191
43.2933 76.7067
43.3056 76.6944
43.3179 76.6821
43.3302 76.6698
43.3424 76.6576
43.3547 76.6453
43.3669 76.6331
43.3791 76.6209
43.3912 76.6088
43.4034 76.5966
43.4155 76.5845
43.4276 76.5724
43.4396 76.5604
43.4517 76.5483
43.4637 76.5363
43.4757 76.5243
43.4876 76.5124
43.4996 76.5004
43.5115 76.4885
43.5234 76.4766
43.5352 76.4648
43.5471 76.4529
43.5589 76.4411
43.5707 76.4293
43.5824 76.4176
43.5941 76.4059
43.6058 76.3942
43.6175 76.3825
43.6292 76.3708
43.6408 76.3592
43.6524 76.3476
43.664 76.336
43.6756 76.3244
43.6871 76.3129
43.6986 76.3014
43.7102 76.2898
43.7216 76.2784
43.7331 76.2669
43.7445 76.2555
43.756 76.244
43.7674 76.2326
43.7787 76.2213
43.7901 76.2099
43.8014 76.1986
43.8127 76.1873
43.824 76.176
43.8353 76.1647
43.8465 76.1535
43.8577 76.1423
43.8689 76.1311
43.8801 76.1199
43.8912 76.1088
43.9024 76.0976
43.9135 76.0865
43.9246 76.0754
43.9356 76.0644
43.9466 76.0534
43.9577 76.0423
43.9686 76.0314
43.9796 76.0204
43.9906 76.0094
44.0015 75.9985
44.0124 75.9876
44.0233 75.9767
44.0341 75.9659
44.0449 75.9551
44.0558 75.9442
44.0666 75.9334
44.0773 75.9227
44.0881 75.9119
44.0988 75.9012
44.1096 75.8904
44.1203 75.8797
44.1309 75.8691
44.1416 75.8584
44.1522 75.8478
44.1628 75.8372
44.1734 75.8266
44.184 75.816
44.1946 75.8054
44.2051 75.7949
44.2156 75.7844
44.2261 75.7739
44.2365 75.7635
44.247 75.753
44.2574 75.7426
44.2678 75.7322
44.2782 75.7218
44.2886 75.7114
44.299 75.701
44.3093 75.6907
44.3196 75.6804
44.3299 75.6701
44.3402 75.6598
44.3504 75.6496
44.3607 75.6393
44.3709 75.6291
44.3811 75.6189
44.3913 75.6087
44.4015 75.5985
44.4116 75.5884
44.4218 75.5782
44.4319 75.5681
44.442 75.558
44.452 75.548
44.4621 75.5379
44.4721 75.5279
44.4821 75.5179
44.4921 75.5079
44.5021 75.4979
44.5121 75.4879
44.522 75.478
44.532 75.468
44.5419 75.4581
44.5518 75.4482
44.5616 75.4384
44.5715 75.4285
44.5813 75.4187
44.5912 75.4088
44.601 75.399
44.6107 75.3893
44.6205 75.3795
44.6302 75.3698
44.6399 75.3601
44.6496 75.3504
44.6593 75.3407
44.669 75.331
44.6786 75.3214
44.6883 75.3117
44.6979 75.3021
44.7075 75.2925
44.7171 75.2829
44.7267 75.2733
44.7362 75.2638
44.7458 75.2542
44.7553 75.2447
44.7648 75.2352
44.7743 75.2257
44.7838 75.2162
44.7932 75.2068
44.8026 75.1974
44.812 75.188
44.8214 75.1786
44.8308 75.1692
44.8402 75.1598
44.8496 75.1504
44.8589 75.1411
44.8682 75.1318
44.8775 75.1225
44.8868 75.1132
44.8961 75.1039
44.9053 75.0947
44.9145 75.0855
44.9238 75.0762
44.9329 75.0671
44.9421 75.0579
44.9513 75.0487
44.9604 75.0396
44.9696 75.0304
44.9787 75.0213
44.9878 75.0122
44.9969 75.0031
45.0059 74.9941
45.015 74.985
45.024 74.976
45.033 74.967
45.042 74.958
45.051 74.949
45.0599 74.9401
45.0689 74.9311
45.0778 74.9222
45.0867 74.9133
45.0956 74.9044
45.1045 74.8955
45.1133 74.8867
45.1222 74.8778
45.131 74.869
45.1399 74.8601
45.1487 74.8513
45.1575 74.8425
45.1662 74.8338
45.175 74.825
45.1837 74.8163
45.1924 74.8076
45.2011 74.7989
45.2098 74.7902
45.2185 74.7815
45.2272 74.7728
45.2358 74.7642
45.2444 74.7556
45.253 74.747
45.2616 74.7384
45.2702 74.7298
45.2787 74.7213
45.2873 74.7127
45.2958 74.7042
45.3043 74.6957
45.3128 74.6872
45.3213 74.6787
45.3297 74.6703
45.3382 74.6618
45.3466 74.6534
45.3551 74.6449
45.3635 74.6365
45.3719 74.6281
45.3803 74.6197
45.3886 74.6114
45.397 74.603
45.4053 74.5947
45.4137 74.5863
45.422 74.578
45.4303 74.5697
45.4385 74.5615
45.4468 74.5532
45.4551 74.5449
45.4633 74.5367
45.4715 74.5285
45.4797 74.5203
45.4879 74.5121
45.4961 74.5039
45.5042 74.4958
45.5124 74.4876
45.5205 74.4795
45.5286 74.4714
45.5367 74.4633
45.5447 74.4553
45.5528 74.4472
45.5609 74.4391
45.5689 74.4311
45.5769 74.4231
45.5849 74.4151
45.5929 74.4071
45.6009 74.3991
45.6089 74.3911
45.6168 74.3832
45.6247 74.3753
45.6327 74.3673
45.6406 74.3594
45.6484 74.3516
45.6563 74.3437
45.6642 74.3358
45.672 74.328
45.6798 74.3202
45.6876 74.3124
45.6954 74.3046
45.7032 74.2968
45.711 74.289
45.7187 74.2813
45.7265 74.2735
45.7342 74.2658
45.7419 74.2581
45.7496 74.2504
45.7572 74.2428
45.7649 74.2351
45.7725 74.2275
45.7802 74.2198
45.7878 74.2122
45.7953 74.2047
45.8029 74.1971
45.8105 74.1895
45.818 74.182
45.8255 74.1745
45.833 74.167
45.8406 74.1594
45.848 74.152
45.8555 74.1445
45.863 74.137
45.8704 74.1296
45.8778 74.1222
45.8852 74.1148
45.8926 74.1074
45.9 74.1
45.9074 74.0926
45.9148 74.0852
45.9221 74.0779
45.9294 74.0706
45.9368 74.0632
45.944 74.056
45.9513 74.0487
45.9586 74.0414
45.9658 74.0342
45.9731 74.0269
45.9803 74.0197
45.9875 74.0125
45.9947 74.0053
46.0018 73.9982
46.009 73.991
46.0161 73.9839
46.0232 73.9768
46.0303 73.9697
46.0374 73.9626
46.0445 73.9555
46.0516 73.9484
46.0586 73.9414
46.0657 73.9343
46.0727 73.9273
46.0797 73.9203
46.0867 73.9133
46.0936 73.9064
46.1006 73.8994
46.1075 73.8925
46.1144 73.8856
46.1213 73.8787
46.1282 73.8718
46.1351 73.8649
46.142 73.858
46.1489 73.8511
46.1557 73.8443
46.1625 73.8375
46.1694 73.8306
46.1762 73.8238
46.1829 73.8171
46.1897 73.8103
46.1965 73.8035
46.2032 73.7968
46.2099 73.7901
46.2166 73.7834
46.2233 73.7767
46.23 73.77
46.2367 73.7633
46.2433 73.7567
46.25 73.75
46.2566 73.7434
46.2632 73.7368
46.2698 73.7302
46.2764 73.7236
46.283 73.717
46.2895 73.7105
46.2961 73.7039
46.3026 73.6974
46.3091 73.6909
46.3156 73.6844
46.3221 73.6779
46.3286 73.6714
46.335 73.665
46.3414 73.6586
46.3479 73.6521
46.3543 73.6457
46.3607 73.6393
46.367 73.633
46.3734 73.6266
46.3797 73.6203
46.3861 73.6139
46.3924 73.6076
46.3987 73.6013
46.405 73.595
46.4112 73.5888
46.4175 73.5825
46.4237 73.5763
46.4299 73.5701
46.4361 73.5639
46.4423 73.5577
46.4485 73.5515
46.4547 73.5453
46.4608 73.5392
46.4669 73.5331
46.473 73.527
46.4791 73.5209
46.4852 73.5148
46.4913 73.5087
46.4974 73.5026
46.5034 73.4966
46.5094 73.4906
46.5154 73.4846
46.5214 73.4786
46.5274 73.4726
46.5333 73.4667
46.5393 73.4607
46.5452 73.4548
46.5511 73.4489
46.557 73.443
46.5629 73.4371
46.5687 73.4313
46.5746 73.4254
46.5804 73.4196
46.5862 73.4138
46.592 73.408
46.5978 73.4022
46.6035 73.3965
46.6093 73.3907
46.615 73.385
46.6207 73.3793
46.6264 73.3736
46.6321 73.3679
46.6377 73.3623
46.6434 73.3566
46.649 73.351
46.6546 73.3454
46.6602 73.3398
46.6658 73.3342
46.6714 73.3286
46.6769 73.3231
46.6824 73.3176
46.688 73.312
46.6934 73.3066
46.6989 73.3011
46.7044 73.2956
46.7098 73.2902
46.7152 73.2848
46.7207 73.2793
46.726 73.274
46.7314 73.2686
46.7368 73.2632
46.7421 73.2579
46.7474 73.2526
46.7528 73.2472
46.7581 73.2419
46.7633 73.2367
46.7686 73.2314
46.7738 73.2262
46.7791 73.2209
46.7843 73.2157
46.7895 73.2105
46.7947 73.2053
46.7998 73.2002
46.805 73.195
46.8101 73.1899
46.8152 73.1848
46.8203 73.1797
46.8254 73.1746
46.8305 73.1695
46.8355 73.1645
46.8405 73.1595
46.8456 73.1544
46.8506 73.1494
46.8555 73.1445
46.8605 73.1395
46.8654 73.1346
46.8704 73.1296
46.8753 73.1247
46.8802 73.1198
46.885 73.115
46.8899 73.1101
46.8947 73.1053
46.8995 73.1005
46.9043 73.0957
46.9091 73.0909
46.9139 73.0861
46.9186 73.0814
46.9234 73.0766
46.9281 73.0719
46.9328 73.0672
46.9374 73.0626
46.9421 73.0579
46.9468 73.0532
46.9514 73.0486
46.956 73.044
46.9606 73.0394
46.9651 73.0349
46.9697 73.0303
46.9742 73.0258
46.9787 73.0213
46.9832 73.0168
46.9877 73.0123
46.9922 73.0078
46.9966 73.0034
47.001 72.999
47.0055 72.9945
47.0098 72.9902
47.0142 72.9858
47.0186 72.9814
47.0229 72.9771
47.0272 72.9728
47.0315 72.9685
47.0358 72.9642
47.0401 72.9599
47.0443 72.9557
47.0485 72.9515
47.0527 72.9473
47.0569 72.9431
47.0611 72.9389
47.0652 72.9348
47.0694 72.9306
47.0735 72.9265
47.0776 72.9224
47.0817 72.9183
47.0857 72.9143
47.0898 72.9102
47.0938 72.9062
47.0978 72.9022
47.1018 72.8982
47.1058 72.8942
47.1097 72.8903
47.1137 72.8863
47.1176 72.8824
47.1215 72.8785
47.1254 72.8746
47.1293 72.8707
47.1331 72.8669
47.1369 72.8631
47.1408 72.8592
47.1446 72.8554
47.1484 72.8516
47.1521 72.8479
47.1559 72.8441
47.1596 72.8404
47.1633 72.8367
47.167 72.833
47.1707 72.8293
47.1743 72.8257
47.178 72.822
47.1816 72.8184
47.1852 72.8148
47.1888 72.8112
47.1924 72.8076
47.196 72.804
47.1995 72.8005
47.203 72.797
47.2065 72.7935
47.21 72.79
47.2135 72.7865
47.217 72.783
47.2204 72.7796
47.2238 72.7762
47.2272 72.7728
47.2306 72.7694
47.234 72.766
47.2373 72.7627
47.2407 72.7593
47.244 72.756
47.2473 72.7527
47.2505 72.7495
47.2538 72.7462
47.257 72.743
47.2602 72.7398
47.2634 72.7366
47.2666 72.7334
47.2698 72.7302
47.2729 72.7271
47.2761 72.7239
47.2792 72.7208
47.2822 72.7178
47.2853 72.7147
47.2884 72.7116
47.2914 72.7086
47.2944 72.7056
47.2974 72.7026
47.3004 72.6996
47.3033 72.6967
47.3063 72.6937
47.3092 72.6908
47.3121 72.6879
47.315 72.685
47.3178 72.6822
47.3207 72.6793
47.3235 72.6765
47.3263 72.6737
47.3291 72.6709
47.3319 72.6681
47.3347 72.6653
47.3374 72.6626
47.3402 72.6598
47.3429 72.6571
47.3456 72.6544
47.3482 72.6518
47.3509 72.6491
47.3535 72.6465
47.3561 72.6439
47.3587 72.6413
47.3613 72.6387
47.3639 72.6361
47.3665 72.6335
47.369 72.631
47.3715 72.6285
47.374 72.626
47.3765 72.6235
47.379 72.621
47.3814 72.6186
47.3839 72.6161
47.3863 72.6137
47.3887 72.6113
47.3911 72.6089
47.3934 72.6066
47.3958 72.6042
47.3981 72.6019
47.4004 72.5996
47.4027 72.5973
47.405 72.595
47.4073 72.5927
47.4096 72.5904
47.4118 72.5882
47.414 72.586
47.4162 72.5838
47.4184 72.5816
47.4206 72.5794
47.4228 72.5772
47.4249 72.5751
47.4271 72.5729
47.4292 72.5708
47.4313 72.5687
47.4334 72.5666
47.4355 72.5645
47.4375 72.5625
47.4396 72.5604
47.4416 72.5584
47.4436 72.5564
47.4456 72.5544
47.4476 72.5524
47.4495 72.5505
47.4515 72.5485
47.4534 72.5466
47.4553 72.5447
47.4572 72.5428
47.4591 72.5409
47.461 72.539
47.4628 72.5372
47.4647 72.5353
47.4665 72.5335
47.4683 72.5317
47.4701 72.5299
47.4719 72.5281
47.4737 72.5263
47.4754 72.5246
47.4772 72.5228
47.4789 72.5211
47.4806 72.5194
47.4823 72.5177
47.484 72.516
47.4856 72.5144
47.4873 72.5127
47.4889 72.5111
47.4905 72.5095
47.4921 72.5079
47.4937 72.5063
47.4953 72.5047
47.4968 72.5032
47.4984 72.5016
47.4999 72.5001
47.5014 72.4986
47.5029 72.4971
47.5044 72.4956
47.5059 72.4941
47.5073 72.4927
47.5088 72.4912
47.5102 72.4898
47.5116 72.4884
47.513 72.487
47.5144 72.4856
47.5158 72.4842
47.5172 72.4828
47.5186 72.4814
47.5199 72.4801
47.5212 72.4788
47.5225 72.4775
47.5238 72.4762
47.5251 72.4749
47.5264 72.4736
47.5277 72.4723
47.5289 72.4711
47.5302 72.4698
47.5314 72.4686
47.5326 72.4674
47.5338 72.4662
47.535 72.465
47.5362 72.4638
47.5374 72.4626
47.5386 72.4614
47.5397 72.4603
47.5409 72.4591
47.542 72.458
47.5431 72.4569
47.5442 72.4558
47.5453 72.4547
47.5464 72.4536
47.5474 72.4526
47.5485 72.4515
47.5495 72.4505
47.5506 72.4494
47.5516 72.4484
47.5526 72.4474
47.5536 72.4464
47.5546 72.4454
47.5556 72.4444
47.5565 72.4435
47.5575 72.4425
47.5584 72.4416
47.5593 72.4407
47.5603 72.4397
47.5612 72.4388
47.5621 72.4379
47.563 72.437
47.5638 72.4362
47.5647 72.4353
47.5656 72.4344
47.5664 72.4336
47.5673 72.4327
47.5681 72.4319
47.569 72.431
47.5698 72.4302
47.5706 72.4294
47.5714 72.4286
47.5722 72.4278
47.573 72.427
47.5738 72.4262
47.5746 72.4254
47.5753 72.4247
47.5761 72.4239
47.5768 72.4232
47.5776 72.4224
47.5783 72.4217
47.579 72.421
47.5797 72.4203
47.5804 72.4196
47.5811 72.4189
47.5818 72.4182
47.5825 72.4175
47.5832 72.4168
47.5839 72.4161
47.5845 72.4155
47.5852 72.4148
47.5858 72.4142
47.5865 72.4135
47.5871 72.4129
47.5877 72.4123
47.5883 72.4117
47.5889 72.4111
47.5895 72.4105
47.5901 72.4099
47.5907 72.4093
47.5912 72.4088
47.5918 72.4082
47.5924 72.4076
47.5929 72.4071
47.5935 72.4065
47.594 72.406
47.5945 72.4055
47.595 72.405
47.5956 72.4044
47.5961 72.4039
47.5966 72.4034
47.5971 72.4029
47.5976 72.4024
47.598 72.402
47.5985 72.4015
47.599 72.401
47.5995 72.4005
47.5999 72.4001
47.6004 72.3996
47.6008 72.3992
47.6013 72.3987
47.6017 72.3983
47.6021 72.3979
47.6025 72.3975
47.6029 72.3971
47.6033 72.3967
47.6037 72.3963
47.6041 72.3959
47.6045 72.3955
47.6049 72.3951
47.6053 72.3947
47.6057 72.3943
47.606 72.394
47.6064 72.3936
47.6067 72.3933
47.6071 72.3929
47.6074 72.3926
47.6078 72.3922
47.6081 72.3919
47.6085 72.3915
47.6088 72.3912
47.6091 72.3909
47.6094 72.3906
47.6098 72.3902
47.6101 72.3899
47.6104 72.3896
47.6107 72.3893
47.611 72.389
47.6113 72.3887
47.6116 72.3884
47.6119 72.3881
47.6122 72.3878
47.6125 72.3875
47.6128 72.3872
47.613 72.387
47.6133 72.3867
47.6136 72.3864
47.6139 72.3861
47.6141 72.3859
47.6144 72.3856
47.6146 72.3854
47.6149 72.3851
47.6151 72.3849
47.6154 72.3846
47.6156 72.3844
47.6158 72.3842
47.6161 72.3839
47.6163 72.3837
47.6165 72.3835
47.6167 72.3833
47.6169 72.3831
47.6171 72.3829
47.6173 72.3827
47.6175 72.3825
47.6177 72.3823
47.6179 72.3821
47.6181 72.3819
47.6182 72.3818
47.6184 72.3816
47.6186 72.3814
47.6188 72.3812
47.6189 72.3811
47.6191 72.3809
47.6192 72.3808
47.6194 72.3806
47.6195 72.3805
47.6197 72.3803
47.6198 72.3802
47.62 72.38
47.6201 72.3799
47.6203 72.3797
47.6204 72.3796
47.6206 72.3794
47.6207 72.3793
47.6208 72.3792
47.621 72.379
47.6211 72.3789
47.6212 72.3788
47.6214 72.3786
47.6215 72.3785
47.6216 72.3784
47.6218 72.3782
47.6219 72.3781
47.622 72.378
47.6221 72.3779
47.6222 72.3778
47.6224 72.3776
47.6225 72.3775
47.6226 72.3774
47.6227 72.3773
47.6228 72.3772
47.6229 72.3771
47.623 72.377
47.6231 72.3769
47.6232 72.3768
47.6233 72.3767
47.6234 72.3766
47.6235 72.3765
47.6236 72.3764
47.6237 72.3763
47.6237 72.3763
47.6237 72.3763
47.6237 72.3763
47.6237 72.3763
47.6237 72.3763
47.6237 72.3763
47.6237 72.3763
47.6237 72.3763
47.6237 72.3763
47.6237 72.3763
47.6237 72.3763
47.6237 72.3763
47.6237 72.3763
47.6237 72.3763
47.6237 72.3763
47.6237 72.3763
47.6237 72.3763
47.6237 72.3763
47.6237 72.3763
47.6237 72.3763
47.6237 72.3763
47.6237 72.3763
47.6237 72.3763
47.6237 72.3763
47.6237 72.3763
47.6237 72.3763
47.6237 72.3763
47.6237 72.3763
47.6237 72.3763
47.6237 72.3763
47.6237 72.3763
47.6237 72.3763
47.6237 72.3763
47.6237 72.3763
47.6237 72.3763
47.6237 72.3763
47.6237 72.3763
47.6237 72.3763
47.6237 72.3763
47.6237 72.3763
47.6237 72.3763
47.6237 72.3763
47.6237 72.3763
47.6237 72.3763
47.6237 72.3763
47.6237 72.3763
47.6237 72.3763
47.6237 72.3763
47.6237 72.3763
47.6237 72.3763
47.6237 72.3763
47.6237 72.3763
47.6237 72.3763
47.6237 72.3763
47.6237 72.3763
47.6237 72.3763
47.6237 72.3763
47.6237 72.3763
47.6237 72.3763
47.6237 72.3763
47.6237 72.3763
47.6237 72.3763
47.6237 72.3763
47.6237 72.3763
47.6237 72.3763
47.6237 72.3763
47.6237 72.3763
47.6237 72.3763
47.6237 72.3763
47.6237 72.3763
47.6237 72.3763
47.6237 72.3763
47.6237 72.3763
47.6237 72.3763
47.6237 72.3763
47.6237 72.3763
47.6237 72.3763
47.6237 72.3763
47.6237 72.3763
47.6237 72.3763
47.6237 72.3763
47.6237 72.3763
47.6237 72.3763
47.6237 72.3763
47.6237 72.3763
47.6237 72.3763
47.6237 72.3763
47.6237 72.3763
47.6237 72.3763
47.6237 72.3763
47.6237 72.3763
47.6237 72.3763
47.6237 72.3763
47.6237 72.3763
47.6237 72.3763
47.6237 72.3763
47.6237 72.3763
47.6237 72.3763
47.6237 72.3763
47.6237 72.3763
47.6237 72.3763
47.6237 72.3763
47.6237 72.3763
47.6237 72.3763
47.6237 72.3763
47.6237 72.3763
47.6237 72.3763
47.6237 72.3763
47.6237 72.3763
47.6237 72.3763
47.6237 72.3763
47.6237 72.3763
47.6237 72.3763
47.6237 72.3763
47.6237 72.3763
47.6237 72.3763
47.6237 72.3763
47.6237 72.3763
47.6237 72.3763
47.6237 72.3763
47.6237 72.3763
47.6237 72.3763
47.6237 72.3763
47.6237 72.3763
47.6237 72.3763
47.6237 72.3763
47.6237 72.3763
47.6237 72.3763
47.6237 72.3763
47.6237 72.3763
47.6237 72.3763
47.6237 72.3763
47.6237 72.3763
47.6237 72.3763
47.6237 72.3763
47.6237 72.3763
47.6237 72.3763
47.6237 72.3763
47.6237 72.3763
47.6237 72.3763
47.6237 72.3763
47.6237 72.3763
47.6237 72.3763
47.6237 72.3763
47.6237 72.3763
47.6237 72.3763
47.6237 72.3763
47.6237 72.3763
47.6237 72.3763
47.6237 72.3763
47.6237 72.3763
47.6237 72.3763
47.6237 72.3763
47.6237 72.3763
47.6237 72.3763
47.6237 72.3763
47.6237 72.3763
47.6237 72.3763
47.6237 72.3763
47.6237 72.3763
47.6237 72.3763
47.6237 72.3763
47.6237 72.3763
47.6237 72.3763
47.6237 72.3763
47.6237 72.3763
47.6237 72.3763
47.6237 72.3763
47.6237 72.3763
47.6237 72.3763
47.6237 72.3763
47.6237 72.3763
47.6237 72.3763
47.6237 72.3763
47.6237 72.3763
47.6237 72.3763
47.6237 72.3763
47.6237 72.3763
47.6237 72.3763
47.6237 72.3763
47.6237 72.3763
47.6237 72.3763
47.6237 72.3763
47.6237 72.3763
47.6237 72.3763
47.6237 72.3763
47.6237 72.3763
47.6237 72.3763
47.6237 72.3763
47.6237 72.3763
47.6237 72.3763
47.6237 72.3763
47.6237 72.3763
47.6237 72.3763
47.6237 72.3763
47.6237 72.3763
47.6237 72.3763
47.6237 72.3763
47.6237 72.3763
47.6237 72.3763
47.6237 72.3763
47.6237 72.3763
47.6237 72.3763
47.6237 72.3763
47.6237 72.3763
47.6237 72.3763
47.6237 72.3763
47.6237 72.3763
47.6237 72.3763
47.6237 72.3763
47.6237 72.3763
47.6237 72.3763
47.6237 72.3763
47.6237 72.3763
47.6237 72.3763
47.6237 72.3763
47.6237 72.3763
47.6237 72.3763
47.6237 72.3763
47.6237 72.3763
47.6237 72.3763
47.6237 72.3763
47.6237 72.3763
47.6237 72.3763
47.6237 72.3763
47.6237 72.3763
47.6237 72.3763
47.6237 72.3763
47.6237 72.3763
47.6237 72.3763
47.6237 72.3763
47.6237 72.3763
47.6237 72.3763
47.6237 72.3763
47.6237 72.3763
47.6237 72.3763
47.6237 72.3763
47.6237 72.3763
47.6237 72.3763
47.6237 72.3763
47.6237 72.3763
47.6237 72.3763
47.6237 72.3763
47.6237 72.3763
47.6237 72.3763
47.6237 72.3763
47.6237 72.3763
47.6237 72.3763
47.6237 72.3763
47.6237 72.3763
47.6237 72.3763
47.6237 72.3763
47.6237 72.3763
47.6237 72.3763
47.6237 72.3763
47.6237 72.3763
47.6237 72.3763
47.6237 72.3763
47.6237 72.3763
47.6237 72.3763
47.6237 72.3763
47.6237 72.3763
47.6237 72.3763
47.6237 72.3763
47.6237 72.3763
47.6237 72.3763
47.6237 72.3763
47.6237 72.3763
47.6237 72.3763
47.6237 72.3763
47.6237 72.3763
47.6237 72.3763
47.6237 72.3763
47.6237 72.3763
47.6237 72.3763
47.6237 72.3763
47.6237 72.3763
47.6237 72.3763
47.6237 72.3763
47.6237 72.3763
47.6237 72.3763
47.6237 72.3763
47.6237 72.3763
47.6237 72.3763
47.6237 72.3763
47.6237 72.3763
47.6237 72.3763
47.6237 72.3763
47.6237 72.3763
47.6237 72.3763
47.6237 72.3763
47.6237 72.3763
47.6237 72.3763
47.6237 72.3763
47.6237 72.3763
47.6237 72.3763
47.6237 72.3763
47.6237 72.3763
47.6237 72.3763
47.6237 72.3763
47.6237 72.3763
47.6237 72.3763
47.6237 72.3763
47.6237 72.3763
47.6237 72.3763
47.6237 72.3763
47.6237 72.3763
47.6237 72.3763
47.6237 72.3763
47.6237 72.3763
47.6237 72.3763
47.6237 72.3763
47.6237 72.3763
47.6237 72.3763
47.6237 72.3763
47.6237 72.3763
47.6237 72.3763
47.6237 72.3763
47.6237 72.3763
47.6237 72.3763
47.6237 72.3763
47.6237 72.3763
47.6237 72.3763
47.6237 72.3763
47.6237 72.3763
47.6237 72.3763
47.6237 72.3763
47.6237 72.3763
47.6237 72.3763
47.6237 72.3763
47.6237 72.3763
47.6237 72.3763
47.6237 72.3763
47.6237 72.3763
47.6237 72.3763
47.6237 72.3763
47.6237 72.3763
47.6237 72.3763
47.6237 72.3763
47.6237 72.3763
47.6237 72.3763
47.6237 72.3763
47.6237 72.3763
47.6237 72.3763
47.6237 72.3763
47.6237 72.3763
47.6237 72.3763
47.6237 72.3763
47.6237 72.3763
47.6237 72.3763
47.6237 72.3763
47.6237 72.3763
47.6237 72.3763
47.6237 72.3763
47.6237 72.3763
47.6237 72.3763
47.6237 72.3763
47.6237 72.3763
47.6237 72.3763
47.6237 72.3763
47.6237 72.3763
47.6237 72.3763
47.6237 72.3763
47.6237 72.3763
47.6237 72.3763
47.6237 72.3763
47.6237 72.3763
47.6237 72.3763
47.6237 72.3763
47.6237 72.3763
47.6237 72.3763
47.6237 72.3763
47.6237 72.3763
47.6237 72.3763
47.6237 72.3763
47.6237 72.3763
47.6237 72.3763
47.6237 72.3763
47.6237 72.3763
47.6237 72.3763
47.6237 72.3763
47.6237 72.3763
47.6237 72.3763
47.6237 72.3763
47.6237 72.3763
47.6237 72.3763
47.6237 72.3763
47.6237 72.3763
47.6237 72.3763
47.6237 72.3763
47.6237 72.3763
47.6237 72.3763
47.6237 72.3763
47.6237 72.3763
47.6237 72.3763
47.6237 72.3763
47.6237 72.3763
47.6237 72.3763
47.6237 72.3763
47.6237 72.3763
47.6237 72.3763
47.6237 72.3763
47.6237 72.3763
47.6237 72.3763
47.6237 72.3763
47.6237 72.3763
47.6237 72.3763
47.6237 72.3763
47.6237 72.3763
47.6237 72.3763
47.6237 72.3763
47.6237 72.3763
47.6237 72.3763
47.6237 72.3763
47.6237 72.3763
47.6237 72.3763
47.6237 72.3763
47.6237 72.3763
47.6237 72.3763
47.6237 72.3763
47.6237 72.3763
47.6237 72.3763
47.6237 72.3763
47.6237 72.3763
47.6237 72.3763
47.6237 72.3763
47.6237 72.3763
47.6237 72.3763
47.6237 72.3763
47.6237 72.3763
47.6237 72.3763
47.6237 72.3763
47.6237 72.3763
47.6237 72.3763
47.6237 72.3763
47.6237 72.3763
47.6237 72.3763
47.6237 72.3763
47.6237 72.3763
47.6237 72.3763
47.6237 72.3763
47.6237 72.3763
47.6237 72.3763
47.6237 72.3763
47.6237 72.3763
47.6237 72.3763
47.6237 72.3763
47.6237 72.3763
47.6237 72.3763
47.6237 72.3763
47.6237 72.3763
47.6237 72.3763
47.6237 72.3763
47.6237 72.3763
47.6237 72.3763
47.6237 72.3763
47.6237 72.3763
47.6237 72.3763
47.6237 72.3763
47.6237 72.3763
47.6237 72.3763
47.6237 72.3763
47.6237 72.3763
47.6237 72.3763
47.6237 72.3763
47.6237 72.3763
47.6237 72.3763
47.6237 72.3763
47.6237 72.3763
47.6237 72.3763
47.6237 72.3763
47.6237 72.3763
47.6237 72.3763
47.6237 72.3763
47.6237 72.3763
47.6237 72.3763
47.6237 72.3763
47.6237 72.3763
47.6237 72.3763
47.6237 72.3763
47.6237 72.3763
47.6237 72.3763
47.6237 72.3763
47.6237 72.3763
47.6237 72.3763
47.6237 72.3763
47.6237 72.3763
47.6237 72.3763
47.6237 72.3763
47.6237 72.3763
47.6237 72.3763
47.6237 72.3763
47.6237 72.3763
47.6237 72.3763
47.6237 72.3763
47.6237 72.3763
47.6237 72.3763
47.6237 72.3763
47.6237 72.3763
47.6237 72.3763
47.6237 72.3763
47.6237 72.3763
47.6237 72.3763
47.6237 72.3763
47.6237 72.3763
47.6237 72.3763
47.6237 72.3763
47.6237 72.3763
47.6237 72.3763
47.6237 72.3763
47.6237 72.3763
47.6237 72.3763
47.6237 72.3763
47.6237 72.3763
47.6237 72.3763
47.6237 72.3763
47.6237 72.3763
47.6237 72.3763
47.6237 72.3763
47.6237 72.3763
47.6237 72.3763
47.6237 72.3763
47.6237 72.3763
47.6237 72.3763
47.6237 72.3763
47.6237 72.3763
47.6237 72.3763
47.6237 72.3763
47.6237 72.3763
47.6237 72.3763
47.6237 72.3763
47.6237 72.3763
47.6237 72.3763
47.6237 72.3763
47.6237 72.3763
47.6237 72.3763
47.6237 72.3763
47.6237 72.3763
47.6237 72.3763
47.6237 72.3763
47.6237 72.3763
47.6237 72.3763
47.6237 72.3763
47.6237 72.3763
47.6237 72.3763
47.6237 72.3763
47.6237 72.3763
47.6237 72.3763
47.6237 72.3763
47.6237 72.3763
47.6237 72.3763
47.6237 72.3763
47.6237 72.3763
47.6237 72.3763
47.6237 72.3763
47.6237 72.3763
47.6237 72.3763
47.6237 72.3763
47.6237 72.3763
47.6237 72.3763
47.6237 72.3763
47.6237 72.3763
47.6237 72.3763
47.6237 72.3763
47.6237 72.3763
47.6237 72.3763
47.6237 72.3763
47.6237 72.3763
47.6237 72.3763
47.6237 72.3763
47.6237 72.3763
47.6237 72.3763
47.6237 72.3763
47.6237 72.3763
47.6237 72.3763
47.6237 72.3763
47.6237 72.3763
47.6237 72.3763
47.6237 72.3763
47.6237 72.3763
47.6237 72.3763
47.6237 72.3763
47.6237 72.3763
47.6237 72.3763
47.6237 72.3763
47.6237 72.3763
47.6237 72.3763
47.6237 72.3763
47.6237 72.3763
47.6237 72.3763
47.6237 72.3763
47.6237 72.3763
47.6237 72.3763
47.6237 72.3763
47.6237 72.3763
47.6237 72.3763
47.6237 72.3763
47.6237 72.3763
47.6237 72.3763
47.6237 72.3763
47.6237 72.3763
47.6237 72.3763
47.6237 72.3763
47.6237 72.3763
47.6237 72.3763
47.6237 72.3763
47.6237 72.3763
47.6237 72.3763
47.6237 72.3763
47.6237 72.3763
47.6237 72.3763
47.6237 72.3763
47.6237 72.3763
47.6237 72.3763
47.6237 72.3763
47.6237 72.3763
47.6237 72.3763
47.6237 72.3763
47.6237 72.3763
47.6237 72.3763
47.6237 72.3763
47.6237 72.3763
47.6237 72.3763
47.6237 72.3763
47.6237 72.3763
47.6237 72.3763
47.6237 72.3763
47.6237 72.3763
47.6237 72.3763
47.6237 72.3763
47.6237 72.3763
47.6237 72.3763
47.6237 72.3763
47.6237 72.3763
47.6237 72.3763
47.6237 72.3763
47.6237 72.3763
47.6237 72.3763
47.6237 72.3763
47.6237 72.3763
47.6237 72.3763
47.6237 72.3763
47.6237 72.3763
47.6237 72.3763
47.6237 72.3763
47.6237 72.3763
47.6237 72.3763
47.6237 72.3763
47.6237 72.3763
47.6237 72.3763
47.6237 72.3763
47.6237 72.3763
47.6237 72.3763
47.6237 72.3763
47.6237 72.3763
47.6237 72.3763
47.6237 72.3763
47.6237 72.3763
47.6237 72.3763
47.6237 72.3763
47.6237 72.3763
47.6237 72.3763
47.6237 72.3763
47.6237 72.3763
47.6237 72.3763
47.6237 72.3763
47.6237 72.3763
47.6237 72.3763
47.6237 72.3763
47.6237 72.3763
47.6237 72.3763
47.6237 72.3763
47.6237 72.3763
47.6237 72.3763
47.6237 72.3763
47.6237 72.3763
47.6237 72.3763
47.6237 72.3763
47.6237 72.3763
47.6237 72.3763
47.6237 72.3763
47.6237 72.3763
47.6237 72.3763
47.6237 72.3763
47.6237 72.3763
47.6237 72.3763
47.6237 72.3763
47.6237 72.3763
47.6237 72.3763
47.6237 72.3763
47.6237 72.3763
47.6237 72.3763
47.6237 72.3763
47.6237 72.3763
47.6237 72.3763
47.6237 72.3763
47.6237 72.3763
47.6237 72.3763
47.6237 72.3763
47.6237 72.3763
47.6237 72.3763
47.6237 72.3763
47.6237 72.3763
47.6237 72.3763
47.6237 72.3763
47.6237 72.3763
47.6237 72.3763
47.6237 72.3763
47.6237 72.3763
47.6237 72.3763
47.6237 72.3763
47.6237 72.3763
47.6237 72.3763
47.6237 72.3763
47.6237 72.3763
47.6237 72.3763
47.6237 72.3763
47.6237 72.3763
47.6237 72.3763
47.6237 72.3763
47.6237 72.3763
47.6237 72.3763
47.6237 72.3763
47.6237 72.3763
47.6237 72.3763
47.6237 72.3763
47.6237 72.3763
47.6237 72.3763
47.6237 72.3763
47.6237 72.3763
47.6237 72.3763
47.6237 72.3763
47.6237 72.3763
47.6237 72.3763
47.6237 72.3763
47.6237 72.3763
47.6237 72.3763
47.6237 72.3763
47.6237 72.3763
47.6237 72.3763
47.6237 72.3763
47.6237 72.3763
47.6237 72.3763
47.6237 72.3763
47.6237 72.3763
47.6237 72.3763
47.6237 72.3763
47.6237 72.3763
47.6237 72.3763
47.6237 72.3763
47.6237 72.3763
47.6237 72.3763
47.6237 72.3763
47.6237 72.3763
47.6237 72.3763
47.6237 72.3763
47.6237 72.3763
47.6237 72.3763
47.6237 72.3763
47.6237 72.3763
47.6237 72.3763
47.6237 72.3763
47.6237 72.3763
47.6237 72.3763
47.6237 72.3763
47.6237 72.3763
47.6237 72.3763
47.6237 72.3763
47.6237 72.3763
47.6237 72.3763
47.6237 72.3763
47.6237 72.3763
47.6237 72.3763
47.6237 72.3763
47.6237 72.3763
47.6237 72.3763
47.6237 72.3763
47.6237 72.3763
47.6237 72.3763
47.6237 72.3763
47.6237 72.3763
47.6237 72.3763
47.6237 72.3763
47.6237 72.3763
47.6237 72.3763
47.6237 72.3763
47.6237 72.3763
47.6237 72.3763
47.6237 72.3763
47.6237 72.3763
47.6237 72.3763
47.6237 72.3763
47.6237 72.3763
47.6237 72.3763
47.6237 72.3763
47.6237 72.3763
47.6237 72.3763
47.6237 72.3763
47.6237 72.3763
47.6237 72.3763
47.6237 72.3763
47.6237 72.3763
47.6237 72.3763
47.6237 72.3763
47.6237 72.3763
47.6237 72.3763
47.6237 72.3763
47.6237 72.3763
47.6237 72.3763
47.6237 72.3763
47.6237 72.3763
47.6237 72.3763
47.6237 72.3763
47.6237 72.3763
47.6237 72.3763
47.6237 72.3763
47.6237 72.3763
47.6237 72.3763
47.6237 72.3763
47.6237 72.3763
47.6237 72.3763
47.6237 72.3763
47.6237 72.3763
47.6237 72.3763
47.6237 72.3763
47.6237 72.3763
47.6237 72.3763
47.6237 72.3763
47.6237 72.3763
47.6237 72.3763
47.6237 72.3763
47.6237 72.3763
47.6237 72.3763
47.6237 72.3763
47.6237 72.3763
47.6237 72.3763
47.6237 72.3763
47.6237 72.3763
47.6237 72.3763
47.6237 72.3763
47.6237 72.3763
47.6237 72.3763
47.6237 72.3763
47.6237 72.3763
47.6237 72.3763
47.6237 72.3763
47.6237 72.3763
47.6237 72.3763
47.6237 72.3763
47.6237 72.3763
47.6237 72.3763
47.6237 72.3763
47.6237 72.3763
47.6237 72.3763
47.6237 72.3763
47.6237 72.3763
47.6237 72.3763
47.6237 72.3763
47.6237 72.3763
47.6237 72.3763
47.6237 72.3763
47.6237 72.3763
47.6237 72.3763
47.6237 72.3763
47.6237 72.3763
47.6237 72.3763
47.6237 72.3763
47.6237 72.3763
47.6237 72.3763
47.6237 72.3763
47.6237 72.3763
47.6237 72.3763
47.6237 72.3763
47.6237 72.3763
47.6237 72.3763
47.6237 72.3763
47.6237 72.3763
47.6237 72.3763
47.6237 72.3763
47.6237 72.3763
47.6237 72.3763
47.6237 72.3763
47.6237 72.3763
47.6237 72.3763
47.6237 72.3763
47.6237 72.3763
47.6237 72.3763
47.6237 72.3763
47.6237 72.3763
47.6237 72.3763
47.6237 72.3763
47.6237 72.3763
47.6237 72.3763
47.6237 72.3763
47.6237 72.3763
47.6237 72.3763
47.6237 72.3763
47.6237 72.3763
47.6237 72.3763
47.6237 72.3763
47.6237 72.3763
47.6237 72.3763
47.6237 72.3763
47.6237 72.3763
47.6237 72.3763
47.6237 72.3763
47.6237 72.3763
47.6237 72.3763
47.6237 72.3763
47.6237 72.3763
47.6237 72.3763
47.6237 72.3763
47.6237 72.3763
47.6237 72.3763
47.6237 72.3763
47.6237 72.3763
47.6237 72.3763
47.6237 72.3763
47.6237 72.3763
47.6237 72.3763
47.6237 72.3763
47.6237 72.3763
47.6237 72.3763
47.6237 72.3763
47.6237 72.3763
47.6237 72.3763
47.6237 72.3763
47.6237 72.3763
47.6237 72.3763
47.6237 72.3763
47.6237 72.3763
47.6237 72.3763
47.6237 72.3763
47.6237 72.3763
47.6237 72.3763
47.6237 72.3763
47.6237 72.3763
47.6237 72.3763
47.6237 72.3763
47.6237 72.3763
47.6237 72.3763
47.6237 72.3763
47.6237 72.3763
47.6237 72.3763
47.6237 72.3763
47.6237 72.3763
47.6237 72.3763
47.6237 72.3763
47.6237 72.3763
47.6237 72.3763
47.6237 72.3763
47.6237 72.3763
47.6237 72.3763
47.6237 72.3763
47.6237 72.3763
47.6237 72.3763
47.6237 72.3763
47.6237 72.3763
47.6237 72.3763
47.6237 72.3763
47.6237 72.3763
47.6237 72.3763
47.6237 72.3763
47.6237 72.3763
47.6237 72.3763
47.6237 72.3763
47.6237 72.3763
47.6237 72.3763
47.6237 72.3763
47.6237 72.3763
47.6237 72.3763
47.6237 72.3763
47.6237 72.3763
47.6237 72.3763
47.6237 72.3763
47.6237 72.3763
47.6237 72.3763
47.6237 72.3763
47.6237 72.3763
47.6237 72.3763
47.6237 72.3763
47.6237 72.3763
47.6237 72.3763
47.6237 72.3763
47.6237 72.3763
47.6237 72.3763
47.6237 72.3763
47.6237 72.3763
47.6237 72.3763
47.6237 72.3763
47.6237 72.3763
47.6237 72.3763
47.6237 72.3763
47.6237 72.3763
47.6237 72.3763
47.6237 72.3763
47.6237 72.3763
47.6237 72.3763
47.6237 72.3763
47.6237 72.3763
47.6237 72.3763
47.6237 72.3763
47.6237 72.3763
47.6237 72.3763
47.6237 72.3763
47.6237 72.3763
47.6237 72.3763
47.6237 72.3763
47.6237 72.3763
47.6237 72.3763
47.6237 72.3763
47.6237 72.3763
47.6237 72.3763
47.6237 72.3763
47.6237 72.3763
47.6237 72.3763
47.6237 72.3763
47.6237 72.3763
47.6237 72.3763
47.6237 72.3763
47.6237 72.3763
47.6237 72.3763
47.6237 72.3763
47.6237 72.3763
47.6237 72.3763
47.6237 72.3763
47.6237 72.3763
47.6237 72.3763
47.6237 72.3763
47.6237 72.3763
47.6237 72.3763
47.6237 72.3763
47.6237 72.3763
47.6237 72.3763
47.6237 72.3763
47.6237 72.3763
47.6237 72.3763
47.6237 72.3763
47.6237 72.3763
47.6237 72.3763
47.6237 72.3763
47.6237 72.3763
47.6237 72.3763
47.6237 72.3763
47.6237 72.3763
47.6237 72.3763
47.6237 72.3763
47.6237 72.3763
47.6237 72.3763
47.6237 72.3763
48.0605 71.9395
48.0178 71.9822
48.0349 71.9651
48.0295 71.9705
48.0649 71.9351
48.0206 71.9794
48.0381 71.9619
48.0307 71.9693
48.0278 71.9722
48.0514 71.9486
48.0219 71.9781
48.0547 71.9453
48.045 71.955
48.0731 71.9269
48.0307 71.9693
48.052 71.948
48.041 71.959
48.0505 71.9495
48.0238 71.9762
48.0141 71.9859
48.0296 71.9704
48.0414 71.9586
48.0607 71.9393
48.0568 71.9432
48.0382 71.9618
48.0244 71.9756
48.0427 71.9573
48.0136 71.9864
48.0524 71.9476
48.0348 71.9652
48.0317 71.9683
47.9825 72.0175
48.0233 71.9767
48.0338 71.9662
48.0228 71.9772
47.9921 72.0079
48.0376 71.9624
47.9908 72.0092
48.0279 71.9721
48.0385 71.9615
48.0301 71.9699
48.0204 71.9796
48.0164 71.9836
48.0288 71.9712
48.0464 71.9536
48.0162 71.9838
48.0321 71.9679
47.9734 72.0266
48.0306 71.9694
48.0152 71.9848
48.0547 71.9453
48.0503 71.9497
48.0278 71.9722
48.0607 71.9393
48.0271 71.9729
48.0302 71.9698
48.0294 71.9706
48.0499 71.9501
48.045 71.955
48.036 71.964
48.0427 71.9573
48.043 71.957
48.0222 71.9778
48.0577 71.9423
48.0275 71.9725
48.0387 71.9613
48.0252 71.9748
48.0581 71.9419
48.0359 71.9641
48.0208 71.9792
48.0121 71.9879
47.9772 72.0228
48.0471 71.9529
48.0408 71.9592
48.0273 71.9727
48.0342 71.9658
48.0388 71.9612
48.0171 71.9829
48.075 71.925
48.0298 71.9702
47.9992 72.0008
48.0301 71.9699
48.0396 71.9604
48.0275 71.9725
48.0265 71.9735
47.9917 72.0083
48.0227 71.9773
47.996 72.004
48.0073 71.9927
48.0458 71.9542
48.0521 71.9479
48.0238 71.9762
48.0443 71.9557
48.0118 71.9882
47.9937 72.0063
48.025 71.975
48.0414 71.9586
48.0379 71.9621
48.0416 71.9584
48.0291 71.9709
48.03 71.97
48.0355 71.9645
48.0366 71.9634
48.0177 71.9823
48.0236 71.9764
48.0364 71.9636
48.0013 71.9987
48.0202 71.9798
48.0154 71.9846
48.0197 71.9803
48.0139 71.9861
47.9953 72.0047
48.0155 71.9845
48.015 71.985
47.9895 72.0105
48.0063 71.9937
48.0202 71.9798
48.0426 71.9574
48.0234 71.9766
48.0232 71.9768
48.0337 71.9663
48.0307 71.9693
48.0117 71.9883
47.9973 72.0027
47.9986 72.0014
48.0202 71.9798
48.0353 71.9647
48.011 71.989
48.0483 71.9517
48.0537 71.9463
48.005 71.995
48.0043 71.9957
47.9946 72.0054
48.0222 71.9778
48.0334 71.9666
48.024 71.976
48.0018 71.9982
47.9988 72.0012
48.0131 71.9869
48.0185 71.9815
48.0152 71.9848
48.0294 71.9706
48.0184 71.9816
47.9908 72.0092
48.0413 71.9587
48.0395 71.9605
48.0135 71.9865
48.0163 71.9837
48.0142 71.9858
48.0092 71.9908
47.9788 72.0212
48.0012 71.9988
48.0159 71.9841
48.0226 71.9774
48.0225 71.9775
47.9779 72.0221
47.9968 72.0032
48.0255 71.9745
48.0222 71.9778
48.0272 71.9728
48.0163 71.9837
48 72
47.992 72.008
48.0071 71.9929
48.0183 71.9817
47.9996 72.0004
48.0339 71.9661
48.0036 71.9964
48.0228 71.9772
48.019 71.981
47.9801 72.0199
48.0197 71.9803
48.0114 71.9886
48.0092 71.9908
47.9931 72.0069
48.0435 71.9565
47.9901 72.0099
47.9726 72.0274
47.9953 72.0047
47.9983 72.0017
47.9994 72.0006
47.986 72.014
47.9674 72.0326
48.0076 71.9924
48.0042 71.9958
47.9883 72.0117
47.9863 72.0137
47.9769 72.0231
48.0374 71.9626
48.008 71.992
48.0101 71.9899
48.0073 71.9927
48.0237 71.9763
47.9863 72.0137
47.9957 72.0043
47.9987 72.0013
48.002 71.998
47.9919 72.0081
48.0286 71.9714
48.0017 71.9983
48.0107 71.9893
47.9791 72.0209
47.9804 72.0196
47.9961 72.0039
47.9705 72.0295
47.9687 72.0313
48.0081 71.9919
48.0059 71.9941
47.9964 72.0036
47.9808 72.0192
47.9837 72.0163
47.9868 72.0132
47.9589 72.0411
48.0059 71.9941
47.9693 72.0307
48.0031 71.9969
47.9966 72.0034
47.9936 72.0064
47.9727 72.0273
47.9931 72.0069
48.0218 71.9782
47.9779 72.0221
48.0002 71.9998
47.9688 72.0312
47.938 72.062
47.9664 72.0336
48.0264 71.9736
47.9896 72.0104
47.9836 72.0164
47.9866 72.0134
47.9822 72.0178
47.9808 72.0192
47.9946 72.0054
47.9576 72.0424
47.9732 72.0268
47.9794 72.0206
47.9165 72.0835
47.9763 72.0237
47.9658 72.0342
47.9577 72.0423
47.9831 72.0169
47.9648 72.0352
47.962 72.038
47.9749 72.0251
47.9731 72.0269
47.9571 72.0429
47.9547 72.0453
47.9846 72.0154
47.9518 72.0482
47.992 72.008
47.9448 72.0552
47.9745 72.0255
47.9461 72.0539
47.9304 72.0696
47.9279 72.0721
47.9715 72.0285
47.9487 72.0513
47.9532 72.0468
47.9308 72.0692
47.9529 72.0471
47.9582 72.0418
47.9556 72.0444
47.921 72.079
47.9172 72.0828
47.9522 72.0478
47.9407 72.0593
47.9573 72.0427
47.9759 72.0241
47.8947 72.1053
47.9246 72.0754
47.9152 72.0848
47.921 72.079
47.9242 72.0758
47.9016 72.0984
47.9154 72.0846
47.9266 72.0734
47.9103 72.0897
47.9242 72.0758
47.9348 72.0652
47.8928 72.1072
47.9106 72.0894
47.9053 72.0947
47.8601 72.1399
47.9073 72.0927
47.8723 72.1277
47.9357 72.0643
47.8664 72.1336
47.8862 72.1138
47.8885 72.1115
47.8678 72.1322
47.8705 72.1295
47.9292 72.0708
47.8784 72.1216
47.8587 72.1413
47.8434 72.1566
47.8388 72.1612
47.891 72.109
47.8242 72.1758
47.8046 72.1954
47.7921 72.2079
47.7739 72.2261
47.726 72.274
47.7081 72.2919
47.7234 72.2766
nan nan
nan nan
nan nan
nan nan
nan nan
nan nan
nan nan
nan nan
nan nan
nan nan
nan nan
nan nan
nan nan
nan nan
nan nan
nan nan
nan nan
nan nan
nan nan
nan nan
nan nan
nan nan
nan nan
nan nan
nan nan
nan nan
nan nan
nan nan
nan nan
nan nan
nan nan
nan nan
nan nan
nan nan
nan nan
nan nan
nan nan
nan nan
nan nan
nan nan
nan nan
nan nan
nan nan
nan nan
nan nan
nan nan
nan nan
nan nan
nan nan
nan nan
nan nan
nan nan
nan nan
nan nan
nan nan
nan nan
nan nan
nan nan
nan nan
nan nan
nan nan
nan nan
nan nan
nan nan
nan nan
nan nan
nan nan
nan nan
nan nan
nan nan
nan nan
nan nan
nan nan
nan nan
nan nan
nan nan
nan nan
nan nan
nan nan
nan nan
nan nan
nan nan
nan nan
nan nan
nan nan
nan nan
nan nan
nan nan
nan nan
nan nan
nan nan
nan nan
nan nan
nan nan
nan nan
nan nan
nan nan
nan nan
nan nan
nan nan
nan nan
nan nan
nan nan
nan nan
nan nan
nan nan
nan nan
nan nan
nan nan
nan nan
nan nan
nan nan
nan nan
nan nan
nan nan
nan nan
nan nan
nan nan
nan nan
nan nan
nan nan
nan nan
nan nan
nan nan
nan nan
nan nan
nan nan
nan nan
nan nan
nan nan
nan nan
nan nan
nan nan
nan nan
nan nan
nan nan
nan nan
nan nan
nan nan
nan nan
nan nan
nan nan
nan nan
nan nan
nan nan
nan nan
nan nan
nan nan
nan nan
nan nan
nan nan
nan nan
nan nan
nan nan
nan nan
nan nan
nan nan
nan nan
nan nan
nan nan
nan nan
nan nan
nan nan
nan nan
nan nan
nan nan
nan nan
nan nan
nan nan
nan nan
nan nan
nan nan
nan nan
nan nan
nan nan
nan nan
nan nan
nan nan
nan nan
nan nan
nan nan
nan nan
nan nan
nan nan
nan nan
nan nan
nan nan
nan nan
nan nan
nan nan
nan nan
nan nan
nan nan
nan nan
nan nan
nan nan
nan nan
nan nan
nan nan
nan nan
nan nan
nan nan
nan nan
nan nan
nan nan
nan nan
nan nan
nan nan
nan nan
nan nan
nan nan
nan nan
nan nan
nan nan
nan nan
nan nan
nan nan
nan nan
nan nan
nan nan
nan nan
nan nan
nan nan
nan nan
nan nan
nan nan
nan nan
nan nan
nan nan
nan nan
nan nan
nan nan
nan nan
nan nan
nan nan
nan nan
nan nan
nan nan
nan nan
nan nan
nan nan
nan nan
nan nan
nan nan
nan nan
nan nan
nan nan
nan nan
nan nan
nan nan
nan nan
nan nan
nan nan
nan nan
nan nan
nan nan
nan nan
nan nan
nan nan
nan nan
nan nan
nan nan
nan nan
nan nan
nan nan
nan nan
nan nan
nan nan
nan nan
nan nan
nan nan
nan nan
nan nan
nan nan
nan nan
nan nan
nan nan
nan nan
nan nan
nan nan
nan nan
nan nan
nan nan
nan nan
nan nan
nan nan
nan nan
nan nan
nan nan
nan nan
nan nan
nan nan
nan nan
nan nan
nan nan
nan nan
nan nan
nan nan
nan nan
nan nan
nan nan
nan nan
nan nan
nan nan
nan nan
nan nan
nan nan
nan nan
nan nan
nan nan
nan nan
nan nan
nan nan
nan nan
nan nan
nan nan
nan nan
nan nan
nan nan
nan nan
nan nan
nan nan
nan nan
nan nan
nan nan
nan nan
nan nan
nan nan
nan nan
nan nan
nan nan
nan nan
nan nan
nan nan
nan nan
nan nan
nan nan
nan nan
nan nan
nan nan
nan nan
nan nan
nan nan
nan nan
nan nan
nan nan
nan nan
nan nan
nan nan
nan nan
nan nan
nan nan
nan nan
nan nan
nan nan
nan nan
nan nan
nan nan
nan nan
nan nan
nan nan
nan nan
nan nan
nan nan
nan nan
nan nan
nan nan
nan nan
nan nan
nan nan
nan nan
nan nan
nan nan
nan nan
nan nan
nan nan
nan nan
nan nan
nan nan
nan nan
nan nan
nan nan
nan nan
nan nan
nan nan
nan nan
nan nan
nan nan
nan nan
nan nan
nan nan
nan nan
nan nan
nan nan
nan nan
nan nan
nan nan
nan nan
nan nan
nan nan
nan nan
nan nan
nan nan
nan nan
nan nan
nan nan
nan nan
nan nan
nan nan
nan nan
nan nan
nan nan
nan nan
nan nan
nan nan
nan nan
nan nan
nan nan
nan nan
nan nan
nan nan
nan nan
nan nan
nan nan
nan nan
nan nan
nan nan
nan nan
nan nan
nan nan
nan nan
nan nan
nan nan
nan nan
nan nan
nan nan
nan nan
nan nan
nan nan
nan nan
nan nan
nan nan
nan nan
nan nan
nan nan
nan nan
nan nan
nan nan
nan nan
nan nan
nan nan
nan nan
nan nan
nan nan
nan nan
nan nan
nan nan
nan nan
nan nan
nan nan
nan nan
nan nan
nan nan
nan nan
nan nan
nan nan
nan nan
nan nan
nan nan
nan nan
nan nan
nan nan
nan nan
nan nan
nan nan
nan nan
nan nan
nan nan
nan nan
nan nan
nan nan
nan nan
nan nan
nan nan
nan nan
nan nan
nan nan
nan nan
nan nan
nan nan
nan nan
nan nan
nan nan
nan nan
nan nan
nan nan
nan nan
nan nan
nan nan
nan nan
nan nan
nan nan
nan nan
nan nan
nan nan
nan nan
nan nan
nan nan
nan nan
nan nan
nan nan
nan nan
nan nan
nan nan
nan nan
nan nan
nan nan
nan nan
nan nan
nan nan
nan nan
nan nan
nan nan
nan nan
nan nan
nan nan
nan nan
nan nan
nan nan
nan nan
nan nan
nan nan
nan nan
nan nan
nan nan
nan nan
nan nan
nan nan
nan nan
nan nan
nan nan
nan nan
nan nan
nan nan
nan nan
nan nan
nan nan
nan nan
nan nan
nan nan
nan nan
nan nan
nan nan
nan nan
nan nan
nan nan
nan nan
nan nan
nan nan
nan nan
nan nan
nan nan
nan nan
nan nan
nan nan
nan nan
nan nan
nan nan
nan nan
nan nan
nan nan
nan nan
nan nan
nan nan
nan nan
nan nan
nan nan
nan nan
nan nan
nan nan
nan nan
nan nan
nan nan
nan nan
nan nan
nan nan
nan nan
nan nan
nan nan
nan nan
nan nan
nan nan
nan nan
nan nan
nan nan
nan nan
nan nan
nan nan
nan nan
nan nan
nan nan
nan nan
nan nan
nan nan
nan nan
nan nan
nan nan
nan nan
nan nan
nan nan
nan nan
nan nan
nan nan
nan nan
nan nan
nan nan
nan nan
nan nan
nan nan
nan nan
nan nan
nan nan
nan nan
nan nan
nan nan
nan nan
nan nan
nan nan
nan nan
nan nan
nan nan
nan nan
nan nan
nan nan
nan nan
nan nan
nan nan
nan nan
nan nan
nan nan
nan nan
nan nan
nan nan
nan nan
nan nan
nan nan
nan nan
nan nan
nan nan
nan nan
nan nan
nan nan
nan nan
nan nan
nan nan
nan nan
nan nan
nan nan
nan nan
nan nan
nan nan
nan nan
nan nan
nan nan
nan nan
nan nan
nan nan
nan nan
nan nan
nan nan
nan nan
nan nan
nan nan
nan nan
nan nan
nan nan
nan nan
nan nan
nan nan
nan nan
nan nan
nan nan
nan nan
nan nan
nan nan
nan nan
nan nan
nan nan
nan nan
nan nan
nan nan
nan nan
nan nan
nan nan
nan nan
nan nan
